lab1/lab1_2019_02_06__22_08_22.log
Chronologic VCS simulator copyright 1991-2017
Contains Synopsys proprietary information.
Compiler version N-2017.12-SP2-2_Full64; Runtime version N-2017.12-SP2-2_Full64;  Feb  6 22:08 2019
time =                    0ns clk = 0 n_rst = 0 up_dwn = 0 count1=x count2=  x 
 
time =                    5ns clk = 1 n_rst = 0 up_dwn = 0 count1=0 count2=  0 
 
time =                   10ns clk = 0 n_rst = 0 up_dwn = 0 count1=0 count2=  0 
 
time =                   15ns clk = 1 n_rst = 1 up_dwn = 1 count1=1 count2=  1 
 
time =                   20ns clk = 0 n_rst = 1 up_dwn = 1 count1=1 count2=  1 
 
time =                   25ns clk = 1 n_rst = 1 up_dwn = 1 count1=2 count2=  2 
 
time =                   30ns clk = 0 n_rst = 1 up_dwn = 1 count1=2 count2=  2 
 
time =                   35ns clk = 1 n_rst = 1 up_dwn = 1 count1=3 count2=  3 
 
time =                   40ns clk = 0 n_rst = 1 up_dwn = 1 count1=3 count2=  3 
 
time =                   45ns clk = 1 n_rst = 1 up_dwn = 1 count1=3 count2=  4 
 
time =                   50ns clk = 0 n_rst = 1 up_dwn = 1 count1=3 count2=  4 
 
time =                   55ns clk = 1 n_rst = 1 up_dwn = 1 count1=3 count2=  5 
 
time =                   60ns clk = 0 n_rst = 1 up_dwn = 1 count1=3 count2=  5 
 
time =                   65ns clk = 1 n_rst = 1 up_dwn = 1 count1=3 count2=  6 
 
time =                   70ns clk = 0 n_rst = 1 up_dwn = 1 count1=3 count2=  6 
 
time =                   75ns clk = 1 n_rst = 1 up_dwn = 1 count1=3 count2=  7 
 
time =                   80ns clk = 0 n_rst = 1 up_dwn = 1 count1=3 count2=  7 
 
time =                   85ns clk = 1 n_rst = 1 up_dwn = 1 count1=3 count2=  8 
 
time =                   90ns clk = 0 n_rst = 1 up_dwn = 1 count1=3 count2=  8 
 
time =                   95ns clk = 1 n_rst = 1 up_dwn = 1 count1=3 count2=  9 
 
time =                  100ns clk = 0 n_rst = 1 up_dwn = 1 count1=3 count2=  9 
 
time =                  105ns clk = 1 n_rst = 1 up_dwn = 1 count1=3 count2= 10 
 
time =                  110ns clk = 0 n_rst = 1 up_dwn = 1 count1=3 count2= 10 
 
time =                  115ns clk = 1 n_rst = 1 up_dwn = 1 count1=3 count2= 11 
 
time =                  120ns clk = 0 n_rst = 1 up_dwn = 1 count1=3 count2= 11 
 
time =                  125ns clk = 1 n_rst = 1 up_dwn = 1 count1=3 count2= 12 
 
time =                  130ns clk = 0 n_rst = 1 up_dwn = 1 count1=3 count2= 12 
 
time =                  135ns clk = 1 n_rst = 1 up_dwn = 1 count1=3 count2= 13 
 
time =                  140ns clk = 0 n_rst = 1 up_dwn = 1 count1=3 count2= 13 
 
time =                  145ns clk = 1 n_rst = 1 up_dwn = 1 count1=3 count2= 14 
 
time =                  150ns clk = 0 n_rst = 1 up_dwn = 1 count1=3 count2= 14 
 
time =                  155ns clk = 1 n_rst = 1 up_dwn = 1 count1=3 count2= 15 
 
time =                  160ns clk = 0 n_rst = 1 up_dwn = 1 count1=3 count2= 15 
 
time =                  165ns clk = 1 n_rst = 1 up_dwn = 1 count1=3 count2= 15 
 
time =                  170ns clk = 0 n_rst = 1 up_dwn = 1 count1=3 count2= 15 
 
time =                  175ns clk = 1 n_rst = 1 up_dwn = 1 count1=3 count2= 15 
 
time =                  180ns clk = 0 n_rst = 1 up_dwn = 1 count1=3 count2= 15 
 
time =                  185ns clk = 1 n_rst = 1 up_dwn = 1 count1=3 count2= 15 
 
time =                  190ns clk = 0 n_rst = 1 up_dwn = 1 count1=3 count2= 15 
 
time =                  195ns clk = 1 n_rst = 1 up_dwn = 1 count1=3 count2= 15 
 
time =                  200ns clk = 0 n_rst = 1 up_dwn = 1 count1=3 count2= 15 
 
time =                  205ns clk = 1 n_rst = 1 up_dwn = 1 count1=3 count2= 15 
 
time =                  210ns clk = 0 n_rst = 1 up_dwn = 1 count1=3 count2= 15 
 
time =                  215ns clk = 1 n_rst = 1 up_dwn = 1 count1=3 count2= 15 
 
time =                  220ns clk = 0 n_rst = 1 up_dwn = 1 count1=3 count2= 15 
 
time =                  225ns clk = 1 n_rst = 1 up_dwn = 1 count1=3 count2= 15 
 
time =                  230ns clk = 0 n_rst = 1 up_dwn = 1 count1=3 count2= 15 
 
time =                  235ns clk = 1 n_rst = 1 up_dwn = 1 count1=3 count2= 15 
 
time =                  240ns clk = 0 n_rst = 1 up_dwn = 1 count1=3 count2= 15 
 
time =                  245ns clk = 1 n_rst = 1 up_dwn = 1 count1=3 count2= 15 
 
time =                  250ns clk = 0 n_rst = 1 up_dwn = 1 count1=3 count2= 15 
 
time =                  255ns clk = 1 n_rst = 1 up_dwn = 1 count1=3 count2= 15 
 
time =                  260ns clk = 0 n_rst = 1 up_dwn = 1 count1=3 count2= 15 
 
time =                  265ns clk = 1 n_rst = 1 up_dwn = 1 count1=3 count2= 15 
 
time =                  270ns clk = 0 n_rst = 1 up_dwn = 1 count1=3 count2= 15 
 
time =                  275ns clk = 1 n_rst = 1 up_dwn = 1 count1=3 count2= 15 
 
time =                  280ns clk = 0 n_rst = 1 up_dwn = 1 count1=3 count2= 15 
 
time =                  285ns clk = 1 n_rst = 1 up_dwn = 1 count1=3 count2= 15 
 
time =                  290ns clk = 0 n_rst = 1 up_dwn = 1 count1=3 count2= 15 
 
time =                  295ns clk = 1 n_rst = 1 up_dwn = 1 count1=3 count2= 15 
 
time =                  300ns clk = 0 n_rst = 1 up_dwn = 1 count1=3 count2= 15 
 
time =                  305ns clk = 1 n_rst = 1 up_dwn = 1 count1=3 count2= 15 
 
time =                  310ns clk = 0 n_rst = 1 up_dwn = 1 count1=3 count2= 15 
 
time =                  315ns clk = 1 n_rst = 1 up_dwn = 0 count1=2 count2= 14 
 
time =                  320ns clk = 0 n_rst = 1 up_dwn = 0 count1=2 count2= 14 
 
time =                  325ns clk = 1 n_rst = 1 up_dwn = 0 count1=1 count2= 13 
 
time =                  330ns clk = 0 n_rst = 1 up_dwn = 0 count1=1 count2= 13 
 
time =                  335ns clk = 1 n_rst = 1 up_dwn = 0 count1=0 count2= 12 
 
time =                  340ns clk = 0 n_rst = 1 up_dwn = 0 count1=0 count2= 12 
 
time =                  345ns clk = 1 n_rst = 1 up_dwn = 0 count1=0 count2= 11 
 
time =                  350ns clk = 0 n_rst = 1 up_dwn = 0 count1=0 count2= 11 
 
time =                  355ns clk = 1 n_rst = 1 up_dwn = 0 count1=0 count2= 10 
 
time =                  360ns clk = 0 n_rst = 1 up_dwn = 0 count1=0 count2= 10 
 
time =                  365ns clk = 1 n_rst = 1 up_dwn = 0 count1=0 count2=  9 
 
time =                  370ns clk = 0 n_rst = 1 up_dwn = 0 count1=0 count2=  9 
 
time =                  375ns clk = 1 n_rst = 1 up_dwn = 0 count1=0 count2=  8 
 
time =                  380ns clk = 0 n_rst = 1 up_dwn = 0 count1=0 count2=  8 
 
time =                  385ns clk = 1 n_rst = 1 up_dwn = 0 count1=0 count2=  7 
 
time =                  390ns clk = 0 n_rst = 1 up_dwn = 0 count1=0 count2=  7 
 
time =                  395ns clk = 1 n_rst = 1 up_dwn = 0 count1=0 count2=  6 
 
time =                  400ns clk = 0 n_rst = 1 up_dwn = 0 count1=0 count2=  6 
 
time =                  405ns clk = 1 n_rst = 1 up_dwn = 0 count1=0 count2=  5 
 
time =                  410ns clk = 0 n_rst = 1 up_dwn = 0 count1=0 count2=  5 
 
time =                  415ns clk = 1 n_rst = 1 up_dwn = 0 count1=0 count2=  4 
 
time =                  420ns clk = 0 n_rst = 1 up_dwn = 0 count1=0 count2=  4 
 
time =                  425ns clk = 1 n_rst = 1 up_dwn = 0 count1=0 count2=  3 
 
time =                  430ns clk = 0 n_rst = 1 up_dwn = 0 count1=0 count2=  3 
 
time =                  435ns clk = 1 n_rst = 1 up_dwn = 0 count1=0 count2=  2 
 
time =                  440ns clk = 0 n_rst = 1 up_dwn = 0 count1=0 count2=  2 
 
time =                  445ns clk = 1 n_rst = 1 up_dwn = 0 count1=0 count2=  1 
 
time =                  450ns clk = 0 n_rst = 1 up_dwn = 0 count1=0 count2=  1 
 
time =                  455ns clk = 1 n_rst = 1 up_dwn = 0 count1=0 count2=  0 
 
time =                  460ns clk = 0 n_rst = 1 up_dwn = 0 count1=0 count2=  0 
 
time =                  465ns clk = 1 n_rst = 1 up_dwn = 0 count1=0 count2=  0 
 
time =                  470ns clk = 0 n_rst = 1 up_dwn = 0 count1=0 count2=  0 
 
time =                  475ns clk = 1 n_rst = 1 up_dwn = 0 count1=0 count2=  0 
 
time =                  480ns clk = 0 n_rst = 1 up_dwn = 0 count1=0 count2=  0 
 
time =                  485ns clk = 1 n_rst = 1 up_dwn = 0 count1=0 count2=  0 
 
time =                  490ns clk = 0 n_rst = 1 up_dwn = 0 count1=0 count2=  0 
 
time =                  495ns clk = 1 n_rst = 1 up_dwn = 0 count1=0 count2=  0 
 
time =                  500ns clk = 0 n_rst = 1 up_dwn = 0 count1=0 count2=  0 
 
time =                  505ns clk = 1 n_rst = 1 up_dwn = 0 count1=0 count2=  0 
 
time =                  510ns clk = 0 n_rst = 1 up_dwn = 0 count1=0 count2=  0 
 
time =                  515ns clk = 1 n_rst = 0 up_dwn = 1 count1=0 count2=  0 
 
time =                  520ns clk = 0 n_rst = 0 up_dwn = 1 count1=0 count2=  0 
 
time =                  525ns clk = 1 n_rst = 0 up_dwn = 1 count1=0 count2=  0 
 
time =                  530ns clk = 0 n_rst = 0 up_dwn = 1 count1=0 count2=  0 
 
time =                  535ns clk = 1 n_rst = 1 up_dwn = 1 count1=1 count2=  1 
 
time =                  540ns clk = 0 n_rst = 1 up_dwn = 1 count1=1 count2=  1 
 
time =                  545ns clk = 1 n_rst = 1 up_dwn = 1 count1=2 count2=  2 
 
time =                  550ns clk = 0 n_rst = 1 up_dwn = 1 count1=2 count2=  2 
 
time =                  555ns clk = 1 n_rst = 1 up_dwn = 1 count1=3 count2=  3 
 
time =                  560ns clk = 0 n_rst = 1 up_dwn = 1 count1=3 count2=  3 
 
time =                  565ns clk = 1 n_rst = 1 up_dwn = 1 count1=3 count2=  4 
 
time =                  570ns clk = 0 n_rst = 1 up_dwn = 1 count1=3 count2=  4 
 
time =                  575ns clk = 1 n_rst = 1 up_dwn = 1 count1=3 count2=  5 
 
time =                  580ns clk = 0 n_rst = 1 up_dwn = 1 count1=3 count2=  5 
 
time =                  585ns clk = 1 n_rst = 1 up_dwn = 1 count1=3 count2=  6 
 
time =                  590ns clk = 0 n_rst = 1 up_dwn = 1 count1=3 count2=  6 
 
time =                  595ns clk = 1 n_rst = 1 up_dwn = 1 count1=3 count2=  7 
 
time =                  600ns clk = 0 n_rst = 1 up_dwn = 1 count1=3 count2=  7 
 
time =                  605ns clk = 1 n_rst = 1 up_dwn = 1 count1=3 count2=  8 
 
time =                  610ns clk = 0 n_rst = 1 up_dwn = 1 count1=3 count2=  8 
 
time =                  615ns clk = 1 n_rst = 1 up_dwn = 1 count1=3 count2=  9 
 
time =                  620ns clk = 0 n_rst = 1 up_dwn = 1 count1=3 count2=  9 
 
time =                  625ns clk = 1 n_rst = 1 up_dwn = 1 count1=3 count2= 10 
 
time =                  630ns clk = 0 n_rst = 1 up_dwn = 1 count1=3 count2= 10 
 
time =                  635ns clk = 1 n_rst = 1 up_dwn = 1 count1=3 count2= 11 
 
time =                  640ns clk = 0 n_rst = 1 up_dwn = 1 count1=3 count2= 11 
 
time =                  645ns clk = 1 n_rst = 1 up_dwn = 1 count1=3 count2= 12 
 
time =                  650ns clk = 0 n_rst = 1 up_dwn = 1 count1=3 count2= 12 
 
time =                  655ns clk = 1 n_rst = 1 up_dwn = 1 count1=3 count2= 13 
 
time =                  660ns clk = 0 n_rst = 1 up_dwn = 1 count1=3 count2= 13 
 
time =                  665ns clk = 1 n_rst = 1 up_dwn = 1 count1=3 count2= 14 
 
time =                  670ns clk = 0 n_rst = 1 up_dwn = 1 count1=3 count2= 14 
 
time =                  675ns clk = 1 n_rst = 1 up_dwn = 1 count1=3 count2= 15 
 
time =                  680ns clk = 0 n_rst = 1 up_dwn = 1 count1=3 count2= 15 
 
time =                  685ns clk = 1 n_rst = 1 up_dwn = 1 count1=3 count2= 15 
 
time =                  690ns clk = 0 n_rst = 1 up_dwn = 1 count1=3 count2= 15 
 
time =                  695ns clk = 1 n_rst = 1 up_dwn = 1 count1=3 count2= 15 
 
time =                  700ns clk = 0 n_rst = 1 up_dwn = 1 count1=3 count2= 15 
 
time =                  705ns clk = 1 n_rst = 1 up_dwn = 1 count1=3 count2= 15 
 
time =                  710ns clk = 0 n_rst = 1 up_dwn = 1 count1=3 count2= 15 
 
time =                  715ns clk = 1 n_rst = 1 up_dwn = 1 count1=3 count2= 15 
 
time =                  720ns clk = 0 n_rst = 1 up_dwn = 1 count1=3 count2= 15 
 
time =                  725ns clk = 1 n_rst = 1 up_dwn = 1 count1=3 count2= 15 
 
time =                  730ns clk = 0 n_rst = 1 up_dwn = 1 count1=3 count2= 15 
 
time =                  735ns clk = 1 n_rst = 1 up_dwn = 1 count1=3 count2= 15 
 
time =                  740ns clk = 0 n_rst = 1 up_dwn = 1 count1=3 count2= 15 
 
time =                  745ns clk = 1 n_rst = 1 up_dwn = 1 count1=3 count2= 15 
 
time =                  750ns clk = 0 n_rst = 1 up_dwn = 1 count1=3 count2= 15 
 
time =                  755ns clk = 1 n_rst = 1 up_dwn = 1 count1=3 count2= 15 
 
time =                  760ns clk = 0 n_rst = 1 up_dwn = 1 count1=3 count2= 15 
 
time =                  765ns clk = 1 n_rst = 1 up_dwn = 1 count1=3 count2= 15 
 
time =                  770ns clk = 0 n_rst = 1 up_dwn = 1 count1=3 count2= 15 
 
time =                  775ns clk = 1 n_rst = 1 up_dwn = 1 count1=3 count2= 15 
 
time =                  780ns clk = 0 n_rst = 1 up_dwn = 1 count1=3 count2= 15 
 
time =                  785ns clk = 1 n_rst = 1 up_dwn = 1 count1=3 count2= 15 
 
time =                  790ns clk = 0 n_rst = 1 up_dwn = 1 count1=3 count2= 15 
 
time =                  795ns clk = 1 n_rst = 1 up_dwn = 1 count1=3 count2= 15 
 
time =                  800ns clk = 0 n_rst = 1 up_dwn = 1 count1=3 count2= 15 
 
time =                  805ns clk = 1 n_rst = 1 up_dwn = 1 count1=3 count2= 15 
 
time =                  810ns clk = 0 n_rst = 1 up_dwn = 1 count1=3 count2= 15 
 
time =                  815ns clk = 1 n_rst = 1 up_dwn = 1 count1=3 count2= 15 
 
time =                  820ns clk = 0 n_rst = 1 up_dwn = 1 count1=3 count2= 15 
 
time =                  825ns clk = 1 n_rst = 1 up_dwn = 1 count1=3 count2= 15 
 
time =                  830ns clk = 0 n_rst = 1 up_dwn = 1 count1=3 count2= 15 
 
time =                  835ns clk = 1 n_rst = 1 up_dwn = 1 count1=3 count2= 15 
 
time =                  840ns clk = 0 n_rst = 1 up_dwn = 1 count1=3 count2= 15 
 
time =                  845ns clk = 1 n_rst = 1 up_dwn = 1 count1=3 count2= 15 
 
time =                  850ns clk = 0 n_rst = 1 up_dwn = 1 count1=3 count2= 15 
 
time =                  855ns clk = 1 n_rst = 1 up_dwn = 1 count1=3 count2= 15 
 
time =                  860ns clk = 0 n_rst = 1 up_dwn = 1 count1=3 count2= 15 
 
time =                  865ns clk = 1 n_rst = 1 up_dwn = 1 count1=3 count2= 15 
 
time =                  870ns clk = 0 n_rst = 1 up_dwn = 1 count1=3 count2= 15 
 
time =                  875ns clk = 1 n_rst = 1 up_dwn = 1 count1=3 count2= 15 
 
time =                  880ns clk = 0 n_rst = 1 up_dwn = 1 count1=3 count2= 15 
 
time =                  885ns clk = 1 n_rst = 1 up_dwn = 1 count1=3 count2= 15 
 
time =                  890ns clk = 0 n_rst = 1 up_dwn = 1 count1=3 count2= 15 
 
time =                  895ns clk = 1 n_rst = 1 up_dwn = 1 count1=3 count2= 15 
 
time =                  900ns clk = 0 n_rst = 1 up_dwn = 1 count1=3 count2= 15 
 
time =                  905ns clk = 1 n_rst = 1 up_dwn = 1 count1=3 count2= 15 
 
time =                  910ns clk = 0 n_rst = 1 up_dwn = 1 count1=3 count2= 15 
 
time =                  915ns clk = 1 n_rst = 1 up_dwn = 1 count1=3 count2= 15 
 
time =                  920ns clk = 0 n_rst = 1 up_dwn = 1 count1=3 count2= 15 
 
time =                  925ns clk = 1 n_rst = 1 up_dwn = 1 count1=3 count2= 15 
 
time =                  930ns clk = 0 n_rst = 1 up_dwn = 1 count1=3 count2= 15 
 
time =                  935ns clk = 1 n_rst = 1 up_dwn = 0 count1=2 count2= 14 
 
time =                  940ns clk = 0 n_rst = 1 up_dwn = 0 count1=2 count2= 14 
 
time =                  945ns clk = 1 n_rst = 1 up_dwn = 0 count1=1 count2= 13 
 
time =                  950ns clk = 0 n_rst = 1 up_dwn = 0 count1=1 count2= 13 
 
time =                  955ns clk = 1 n_rst = 1 up_dwn = 0 count1=0 count2= 12 
 
time =                  960ns clk = 0 n_rst = 1 up_dwn = 0 count1=0 count2= 12 
 
time =                  965ns clk = 1 n_rst = 1 up_dwn = 0 count1=0 count2= 11 
 
time =                  970ns clk = 0 n_rst = 1 up_dwn = 0 count1=0 count2= 11 
 
time =                  975ns clk = 1 n_rst = 1 up_dwn = 0 count1=0 count2= 10 
 
time =                  980ns clk = 0 n_rst = 1 up_dwn = 0 count1=0 count2= 10 
 
time =                  985ns clk = 1 n_rst = 1 up_dwn = 0 count1=0 count2=  9 
 
time =                  990ns clk = 0 n_rst = 1 up_dwn = 0 count1=0 count2=  9 
 
time =                  995ns clk = 1 n_rst = 1 up_dwn = 0 count1=0 count2=  9 
 
time =                 1000ns clk = 0 n_rst = 1 up_dwn = 0 count1=0 count2=  9 
 
time =                 1005ns clk = 1 n_rst = 1 up_dwn = 0 count1=0 count2=  9 
 
time =                 1010ns clk = 0 n_rst = 1 up_dwn = 0 count1=0 count2=  9 
 
time =                 1015ns clk = 1 n_rst = 1 up_dwn = 0 count1=0 count2=  9 
 
time =                 1020ns clk = 0 n_rst = 1 up_dwn = 0 count1=0 count2=  9 
 
time =                 1025ns clk = 1 n_rst = 1 up_dwn = 0 count1=0 count2=  9 
 
time =                 1030ns clk = 0 n_rst = 1 up_dwn = 0 count1=0 count2=  9 
 
time =                 1035ns clk = 1 n_rst = 1 up_dwn = 0 count1=0 count2=  9 
 
time =                 1040ns clk = 0 n_rst = 1 up_dwn = 0 count1=0 count2=  9 
 
time =                 1045ns clk = 1 n_rst = 1 up_dwn = 0 count1=0 count2=  9 
 
time =                 1050ns clk = 0 n_rst = 1 up_dwn = 0 count1=0 count2=  9 
 
time =                 1055ns clk = 1 n_rst = 1 up_dwn = 0 count1=0 count2=  8 
 
time =                 1060ns clk = 0 n_rst = 1 up_dwn = 0 count1=0 count2=  8 
 
time =                 1065ns clk = 1 n_rst = 1 up_dwn = 0 count1=0 count2=  7 
 
time =                 1070ns clk = 0 n_rst = 1 up_dwn = 0 count1=0 count2=  7 
 
time =                 1075ns clk = 1 n_rst = 1 up_dwn = 0 count1=0 count2=  6 
 
time =                 1080ns clk = 0 n_rst = 1 up_dwn = 0 count1=0 count2=  6 
 
time =                 1085ns clk = 1 n_rst = 1 up_dwn = 0 count1=0 count2=  5 
 
time =                 1090ns clk = 0 n_rst = 1 up_dwn = 0 count1=0 count2=  5 
 
time =                 1095ns clk = 1 n_rst = 1 up_dwn = 0 count1=0 count2=  4 
 
time =                 1100ns clk = 0 n_rst = 1 up_dwn = 0 count1=0 count2=  4 
 
time =                 1105ns clk = 1 n_rst = 1 up_dwn = 0 count1=0 count2=  3 
 
time =                 1110ns clk = 0 n_rst = 1 up_dwn = 0 count1=0 count2=  3 
 
time =                 1115ns clk = 1 n_rst = 1 up_dwn = 0 count1=0 count2=  2 
 
time =                 1120ns clk = 0 n_rst = 1 up_dwn = 0 count1=0 count2=  2 
 
time =                 1125ns clk = 1 n_rst = 1 up_dwn = 0 count1=0 count2=  1 
 
time =                 1130ns clk = 0 n_rst = 1 up_dwn = 0 count1=0 count2=  1 
 
time =                 1135ns clk = 1 n_rst = 1 up_dwn = 0 count1=0 count2=  0 
 
time =                 1140ns clk = 0 n_rst = 1 up_dwn = 0 count1=0 count2=  0 
 
time =                 1145ns clk = 1 n_rst = 1 up_dwn = 0 count1=0 count2=  0 
 
time =                 1150ns clk = 0 n_rst = 1 up_dwn = 0 count1=0 count2=  0 
 
time =                 1155ns clk = 1 n_rst = 1 up_dwn = 0 count1=0 count2=  0 
 
time =                 1160ns clk = 0 n_rst = 1 up_dwn = 0 count1=0 count2=  0 
 
time =                 1165ns clk = 1 n_rst = 1 up_dwn = 0 count1=0 count2=  0 
 
time =                 1170ns clk = 0 n_rst = 1 up_dwn = 0 count1=0 count2=  0 
 
time =                 1175ns clk = 1 n_rst = 1 up_dwn = 0 count1=0 count2=  0 
 
time =                 1180ns clk = 0 n_rst = 1 up_dwn = 0 count1=0 count2=  0 
 
time =                 1185ns clk = 1 n_rst = 1 up_dwn = 0 count1=0 count2=  0 
 
time =                 1190ns clk = 0 n_rst = 1 up_dwn = 0 count1=0 count2=  0 
 
time =                 1195ns clk = 1 n_rst = 1 up_dwn = 0 count1=0 count2=  0 
 
time =                 1200ns clk = 0 n_rst = 1 up_dwn = 0 count1=0 count2=  0 
 
time =                 1205ns clk = 1 n_rst = 1 up_dwn = 0 count1=0 count2=  0 
 
time =                 1210ns clk = 0 n_rst = 1 up_dwn = 0 count1=0 count2=  0 
 
time =                 1215ns clk = 1 n_rst = 1 up_dwn = 0 count1=0 count2=  0 
 
time =                 1220ns clk = 0 n_rst = 1 up_dwn = 0 count1=0 count2=  0 
 
time =                 1225ns clk = 1 n_rst = 1 up_dwn = 0 count1=0 count2=  0 
 
time =                 1230ns clk = 0 n_rst = 1 up_dwn = 0 count1=0 count2=  0 
 
time =                 1235ns clk = 1 n_rst = 1 up_dwn = 0 count1=0 count2=  0 
 
time =                 1240ns clk = 0 n_rst = 1 up_dwn = 0 count1=0 count2=  0 
 
time =                 1245ns clk = 1 n_rst = 1 up_dwn = 0 count1=0 count2=  0 
 
time =                 1250ns clk = 0 n_rst = 1 up_dwn = 0 count1=0 count2=  0 
 
time =                 1255ns clk = 1 n_rst = 1 up_dwn = 0 count1=0 count2=  0 
 
time =                 1260ns clk = 0 n_rst = 1 up_dwn = 0 count1=0 count2=  0 
 
time =                 1265ns clk = 1 n_rst = 1 up_dwn = 0 count1=0 count2=  0 
 
time =                 1270ns clk = 0 n_rst = 1 up_dwn = 0 count1=0 count2=  0 
 
time =                 1275ns clk = 1 n_rst = 1 up_dwn = 0 count1=0 count2=  0 
 
time =                 1280ns clk = 0 n_rst = 1 up_dwn = 0 count1=0 count2=  0 
 
time =                 1285ns clk = 1 n_rst = 1 up_dwn = 0 count1=0 count2=  0 
 
time =                 1290ns clk = 0 n_rst = 1 up_dwn = 0 count1=0 count2=  0 
 
time =                 1295ns clk = 1 n_rst = 1 up_dwn = 0 count1=0 count2=  0 
 
time =                 1300ns clk = 0 n_rst = 1 up_dwn = 0 count1=0 count2=  0 
 
time =                 1305ns clk = 1 n_rst = 1 up_dwn = 0 count1=0 count2=  0 
 
time =                 1310ns clk = 0 n_rst = 1 up_dwn = 0 count1=0 count2=  0 
 
time =                 1315ns clk = 1 n_rst = 1 up_dwn = 0 count1=0 count2=  0 
 
time =                 1320ns clk = 0 n_rst = 1 up_dwn = 0 count1=0 count2=  0 
 
time =                 1325ns clk = 1 n_rst = 1 up_dwn = 0 count1=0 count2=  0 
 
time =                 1330ns clk = 0 n_rst = 1 up_dwn = 0 count1=0 count2=  0 
 
time =                 1335ns clk = 1 n_rst = 1 up_dwn = 0 count1=0 count2=  0 
 
time =                 1340ns clk = 0 n_rst = 1 up_dwn = 0 count1=0 count2=  0 
 
time =                 1345ns clk = 1 n_rst = 1 up_dwn = 0 count1=0 count2=  0 
 
time =                 1350ns clk = 0 n_rst = 1 up_dwn = 0 count1=0 count2=  0 
 
time =                 1355ns clk = 1 n_rst = 1 up_dwn = 0 count1=0 count2=  0 
 
time =                 1360ns clk = 0 n_rst = 1 up_dwn = 0 count1=0 count2=  0 
 
time =                 1365ns clk = 1 n_rst = 1 up_dwn = 0 count1=0 count2=  0 
 
time =                 1370ns clk = 0 n_rst = 1 up_dwn = 0 count1=0 count2=  0 
 
time =                 1375ns clk = 1 n_rst = 1 up_dwn = 0 count1=0 count2=  0 
 
time =                 1380ns clk = 0 n_rst = 1 up_dwn = 0 count1=0 count2=  0 
 
time =                 1385ns clk = 1 n_rst = 1 up_dwn = 0 count1=0 count2=  0 
 
time =                 1390ns clk = 0 n_rst = 1 up_dwn = 0 count1=0 count2=  0 
 
time =                 1395ns clk = 1 n_rst = 1 up_dwn = 0 count1=0 count2=  0 
 
time =                 1400ns clk = 0 n_rst = 1 up_dwn = 0 count1=0 count2=  0 
 
$finish called from file "updownCounter_tb.sv", line 38.
$finish at simulation time                 1405
           V C S   S i m u l a t i o n   R e p o r t 
Time: 14050 ns
CPU Time:      0.250 seconds;       Data structure size:   0.0Mb
Wed Feb  6 22:08:22 2019
